^G:\CODING\CPP_TUTORIAL\CPP_TUTORIAL\CPP_TUTORIAL\MAIN.CPP
G:\CODING\CPP_TUTORIAL\CPP_TUTORIAL\CPP_TUTORIAL\X64\DEBUG\VC143.PDB
G:\CODING\CPP_TUTORIAL\CPP_TUTORIAL\CPP_TUTORIAL\X64\DEBUG\VC143.IDB
G:\CODING\CPP_TUTORIAL\CPP_TUTORIAL\CPP_TUTORIAL\X64\DEBUG\MAIN.OBJ
